five-stage-risc-v-cpu.vcd
$date
	Sun Mar 30 11:43:39 2025
$end
$version
	Icarus Verilog
$end
$timescale
	10ps
$end
$scope module tb $end
$var wire 1 ! finish $end
$var wire 32 " executed_inst [31:0] $end
$var reg 1 # clk $end
$var reg 32 $ inst_i [31:0] $end
$var reg 1 % rst_n $end
$var reg 1 & start $end
$var reg 1 ' wr_im $end
$var integer 32 ( fd [31:0] $end
$var integer 32 ) fd2 [31:0] $end
$var integer 32 * inst [31:0] $end
$scope module top_inst $end
$var wire 1 + branch $end
$var wire 1 # clk $end
$var wire 32 , executed_inst [31:0] $end
$var wire 1 - hazard $end
$var wire 32 . id_rd_data [31:0] $end
$var wire 5 / id_rd_idx [4:0] $end
$var wire 1 0 id_reg_write $end
$var wire 32 1 if_branch_target_pc [31:0] $end
$var wire 1 % rst_n $end
$var wire 1 & start $end
$var wire 32 2 top_inst_i [31:0] $end
$var wire 1 ' wr_im $end
$var wire 32 3 wb_data [31:0] $end
$var wire 1 4 mem_wb_reg_write $end
$var wire 5 5 mem_wb_rd_idx [4:0] $end
$var wire 1 6 mem_wb_mem_to_reg $end
$var wire 32 7 mem_wb_mem_data [31:0] $end
$var wire 32 8 mem_wb_alu_o [31:0] $end
$var wire 32 9 mem_data [31:0] $end
$var wire 32 : if_pc [31:0] $end
$var wire 32 ; if_inst [31:0] $end
$var wire 32 < if_id_pc [31:0] $end
$var wire 32 = if_id_inst [31:0] $end
$var wire 32 > id_rs2_data [31:0] $end
$var wire 32 ? id_rs1_data [31:0] $end
$var wire 1 @ id_load_use_hazard $end
$var wire 32 A id_imm [31:0] $end
$var wire 5 B id_ex_rs2_idx [4:0] $end
$var wire 32 C id_ex_rs2_data [31:0] $end
$var wire 5 D id_ex_rs1_idx [4:0] $end
$var wire 32 E id_ex_rs1_data [31:0] $end
$var wire 5 F id_ex_rd_idx [4:0] $end
$var wire 32 G id_ex_pc [31:0] $end
$var wire 32 H id_ex_inst [31:0] $end
$var wire 32 I id_ex_imm [31:0] $end
$var wire 7 J id_ex_funct7 [6:0] $end
$var wire 3 K id_ex_funct3 [2:0] $end
$var wire 13 L id_ex_ctrl [12:0] $end
$var wire 13 M id_ctrl [12:0] $end
$var wire 1 ! finish $end
$var wire 2 N ex_rs2_forward [1:0] $end
$var wire 32 O ex_rs2_for_mem [31:0] $end
$var wire 2 P ex_rs1_forward [1:0] $end
$var wire 32 Q ex_rs1_for_branch [31:0] $end
$var wire 32 R ex_mem_rs2_for_mem [31:0] $end
$var wire 1 S ex_mem_reg_write $end
$var wire 5 T ex_mem_rd_idx [4:0] $end
$var wire 1 U ex_mem_mem_write $end
$var wire 1 V ex_mem_mem_to_reg $end
$var wire 1 W ex_mem_mem_read $end
$var wire 32 X ex_mem_alu_o [31:0] $end
$var wire 32 Y ex_branch_target_pc [31:0] $end
$var wire 1 Z ex_branch $end
$var wire 32 [ ex_alu_rs2 [31:0] $end
$var wire 32 \ ex_alu_rs1 [31:0] $end
$var wire 32 ] ex_alu_o [31:0] $end
$var wire 5 ^ ex_alu_ctrl [4:0] $end
$scope module alu_control_inst $end
$var wire 3 _ alu_op [2:0] $end
$var wire 7 ` funct7 [6:0] $end
$var wire 3 a funct3 [2:0] $end
$var reg 5 b alu_ctrl [4:0] $end
$upscope $end
$scope module alu_inst $end
$var wire 5 c alu_ctrl [4:0] $end
$var wire 32 d rs2 [31:0] $end
$var wire 32 e rs1 [31:0] $end
$var reg 32 f alu_o [31:0] $end
$var reg 1 Z branch $end
$upscope $end
$scope module alu_src_mux_inst $end
$var wire 2 g alu_src1 [1:0] $end
$var wire 2 h alu_src2 [1:0] $end
$var wire 2 i rs2_forward [1:0] $end
$var wire 32 j rs2_for_mem [31:0] $end
$var wire 32 k rs2_data [31:0] $end
$var wire 2 l rs1_forward [1:0] $end
$var wire 32 m rs1_for_branch [31:0] $end
$var wire 32 n rs1_data [31:0] $end
$var wire 32 o pc [31:0] $end
$var wire 32 p mem_wb_rd_data [31:0] $end
$var wire 32 q imm [31:0] $end
$var wire 32 r ex_mem_rd_data [31:0] $end
$var reg 32 s alu_rs1 [31:0] $end
$var reg 32 t alu_rs2 [31:0] $end
$upscope $end
$scope module branch_target_inst $end
$var wire 1 u branch_base $end
$var wire 32 v rs1 [31:0] $end
$var wire 32 w pc [31:0] $end
$var wire 32 x imm [31:0] $end
$var wire 32 y branch_target_pc [31:0] $end
$upscope $end
$scope module control_inst $end
$var wire 1 # clk $end
$var wire 1 + flush $end
$var wire 7 z opcode [6:0] $end
$var wire 1 % rst_n $end
$var wire 13 { ctrl [12:0] $end
$var reg 3 | alu_op [2:0] $end
$var reg 2 } alu_src1 [1:0] $end
$var reg 2 ~ alu_src2 [1:0] $end
$var reg 1 !" branch $end
$var reg 1 "" branch_base $end
$var reg 1 #" mem_read $end
$var reg 1 $" mem_to_reg $end
$var reg 1 %" mem_write $end
$var reg 1 &" reg_write $end
$upscope $end
$scope module data_memory_inst $end
$var wire 1 # clk $end
$var wire 1 % rst_n $end
$var wire 32 '" o_data [31:0] $end
$var wire 1 U mem_write $end
$var wire 1 W mem_read $end
$var wire 32 (" i_data [31:0] $end
$var wire 32 )" addr [31:0] $end
$scope module data_memory_inst $end
$var wire 32 *" addr [31:0] $end
$var wire 1 # clk $end
$var wire 32 +" o_data [31:0] $end
$var wire 1 % rst_n $end
$var wire 1 U wr $end
$var wire 32 ," i_data [31:0] $end
$var integer 32 -" i [31:0] $end
$upscope $end
$upscope $end
$scope module ex_mem_reg_inst $end
$var wire 1 # clk $end
$var wire 32 ." ex_alu_o [31:0] $end
$var wire 32 /" ex_rs2_for_mem [31:0] $end
$var wire 1 0" id_ex_mem_read $end
$var wire 1 1" id_ex_mem_to_reg $end
$var wire 1 2" id_ex_mem_write $end
$var wire 1 3" id_ex_reg_write $end
$var wire 1 % rst_n $end
$var wire 5 4" id_ex_rd_idx [4:0] $end
$var reg 32 5" ex_mem_alu_o [31:0] $end
$var reg 1 W ex_mem_mem_read $end
$var reg 1 V ex_mem_mem_to_reg $end
$var reg 1 U ex_mem_mem_write $end
$var reg 5 6" ex_mem_rd_idx [4:0] $end
$var reg 1 S ex_mem_reg_write $end
$var reg 32 7" ex_mem_rs2_for_mem [31:0] $end
$upscope $end
$scope module forward_inst $end
$var wire 5 8" ex_mem_rd_idx [4:0] $end
$var wire 1 S ex_mem_reg_write $end
$var wire 2 9" rs2_forward [1:0] $end
$var wire 2 :" rs1_forward [1:0] $end
$var wire 1 4 mem_wb_reg_write $end
$var wire 5 ;" mem_wb_rd_idx [4:0] $end
$var wire 5 <" id_ex_rs2_idx [4:0] $end
$var wire 5 =" id_ex_rs1_idx [4:0] $end
$upscope $end
$scope module id_ex_reg_inst $end
$var wire 1 + branch $end
$var wire 1 # clk $end
$var wire 1 - hazard $end
$var wire 13 >" id_ctrl [12:0] $end
$var wire 5 ?" id_rd_idx [4:0] $end
$var wire 5 @" id_rs1_idx [4:0] $end
$var wire 5 A" id_rs2_idx [4:0] $end
$var wire 3 B" if_id_funct3 [2:0] $end
$var wire 7 C" if_id_funct7 [6:0] $end
$var wire 1 % rst_n $end
$var wire 32 D" if_id_pc [31:0] $end
$var wire 32 E" if_id_inst [31:0] $end
$var wire 32 F" id_rs2_data [31:0] $end
$var wire 32 G" id_rs1_data [31:0] $end
$var wire 32 H" id_imm [31:0] $end
$var reg 13 I" id_ex_ctrl [12:0] $end
$var reg 3 J" id_ex_funct3 [2:0] $end
$var reg 7 K" id_ex_funct7 [6:0] $end
$var reg 32 L" id_ex_imm [31:0] $end
$var reg 32 M" id_ex_inst [31:0] $end
$var reg 32 N" id_ex_pc [31:0] $end
$var reg 5 O" id_ex_rd_idx [4:0] $end
$var reg 32 P" id_ex_rs1_data [31:0] $end
$var reg 5 Q" id_ex_rs1_idx [4:0] $end
$var reg 32 R" id_ex_rs2_data [31:0] $end
$var reg 5 S" id_ex_rs2_idx [4:0] $end
$upscope $end
$scope module if_id_reg_inst $end
$var wire 1 # clk $end
$var wire 1 + flush $end
$var wire 1 - hazard $end
$var wire 1 % rst_n $end
$var wire 1 ! o_finish $end
$var wire 32 T" if_pc [31:0] $end
$var wire 32 U" if_inst [31:0] $end
$var reg 4 V" finish [3:0] $end
$var reg 32 W" if_id_inst [31:0] $end
$var reg 32 X" if_id_pc [31:0] $end
$upscope $end
$scope module imm_extend_inst $end
$var wire 32 Y" inst [31:0] $end
$var reg 32 Z" imm [31:0] $end
$upscope $end
$scope module instruction_memory_inst $end
$var wire 1 # clk $end
$var wire 32 [" i_inst [31:0] $end
$var wire 1 % rst_n $end
$var wire 1 ' wr $end
$var wire 32 \" o_inst [31:0] $end
$var wire 32 ]" addr [31:0] $end
$scope module mem_inst $end
$var wire 32 ^" addr [31:0] $end
$var wire 1 # clk $end
$var wire 32 _" i_data [31:0] $end
$var wire 32 `" o_data [31:0] $end
$var wire 1 % rst_n $end
$var wire 1 ' wr $end
$var integer 32 a" i [31:0] $end
$upscope $end
$upscope $end
$scope module load_use_hazard_inst $end
$var wire 1 b" has_rs1 $end
$var wire 1 c" id_ex_mem_read $end
$var wire 5 d" id_ex_rd_idx [4:0] $end
$var wire 7 e" if_id_opcode [6:0] $end
$var wire 5 f" if_id_rs1_idx [4:0] $end
$var wire 5 g" if_id_rs2_idx [4:0] $end
$var wire 1 @ load_use_hazard $end
$upscope $end
$scope module mem_wb_reg_inst $end
$var wire 1 # clk $end
$var wire 32 h" ex_mem_alu_o [31:0] $end
$var wire 1 V ex_mem_mem_to_reg $end
$var wire 5 i" ex_mem_rd_idx [4:0] $end
$var wire 1 S ex_mem_reg_write $end
$var wire 32 j" mem_data [31:0] $end
$var wire 1 % rst_n $end
$var reg 32 k" mem_wb_alu_o [31:0] $end
$var reg 32 l" mem_wb_mem_data [31:0] $end
$var reg 1 6 mem_wb_mem_to_reg $end
$var reg 5 m" mem_wb_rd_idx [4:0] $end
$var reg 1 4 mem_wb_reg_write $end
$upscope $end
$scope module pc_inst $end
$var wire 1 + branch $end
$var wire 32 n" branch_target_pc [31:0] $end
$var wire 1 # clk $end
$var wire 1 - hazard $end
$var wire 1 % rst_n $end
$var wire 1 & start $end
$var wire 1 ' wr_im $end
$var reg 32 o" pc [31:0] $end
$var reg 32 p" pc_nxt [31:0] $end
$var reg 2 q" state [1:0] $end
$var reg 2 r" state_nxt [1:0] $end
$upscope $end
$scope module reg_file_inst $end
$var wire 1 # clk $end
$var wire 32 s" rd_data [31:0] $end
$var wire 5 t" rd_idx [4:0] $end
$var wire 1 0 reg_write $end
$var wire 5 u" rs1_idx [4:0] $end
$var wire 5 v" rs2_idx [4:0] $end
$var wire 1 % rst_n $end
$var wire 32 w" rs2_data [31:0] $end
$var wire 32 x" rs1_data [31:0] $end
$var integer 32 y" i [31:0] $end
$upscope $end
$scope module write_back_mux_inst $end
$var wire 32 z" mem_wb_alu_o [31:0] $end
$var wire 32 {" mem_wb_mem_data [31:0] $end
$var wire 1 6 mem_wb_mem_to_reg $end
$var wire 32 |" wb_data [31:0] $end
$upscope $end
$upscope $end
$upscope $end
$enddefinitions $end
#0
$dumpvars
bx |"
bx {"
bx z"
bx y"
bx x"
bx w"
bx v"
bx u"
bx t"
bx s"
b0 r"
bx q"
bx p"
bx o"
bx n"
bx m"
bx l"
bx k"
bx j"
bx i"
bx h"
bx g"
bx f"
bx e"
bx d"
xc"
xb"
b10000000000 a"
bx `"
b0 _"
b0xxxxxxxxxxxxxxxxxxxxxxxxxxxxxx ^"
bx ]"
bx \"
b0 ["
bx Z"
bx Y"
bx X"
bx W"
bx V"
bx U"
bx T"
bx S"
bx R"
bx Q"
bx P"
bx O"
bx N"
bx M"
bx L"
bx K"
bx J"
bx I"
bx H"
bx G"
bx F"
bx E"
bx D"
bx C"
bx B"
bx A"
bx @"
bx ?"
b101 >"
bx ="
bx <"
bx ;"
bx :"
bx 9"
bx 8"
bx 7"
bx 6"
bx 5"
bx 4"
x3"
x2"
x1"
x0"
bx /"
b0 ."
b10000000000 -"
bx ,"
bx +"
b0xxxxxxxxxxxxxxxxxxxxxxxxxxxxxx *"
bx )"
bx ("
bx '"
0&"
0%"
0$"
0#"
0""
0!"
b0 ~
b0 }
b101 |
b101 {
bx z
bx y
bx x
bx w
bx v
xu
b0 t
b0 s
bx r
bx q
bx p
bx o
bx n
bx m
bx l
bx k
bx j
bx i
bx h
bx g
b0 f
b0 e
b0 d
bx c
bx b
bx a
bx `
bx _
bx ^
b0 ]
b0 \
b0 [
0Z
bx Y
bx X
xW
xV
xU
bx T
xS
bx R
bx Q
bx P
bx O
bx N
b101 M
bx L
bx K
bx J
bx I
bx H
bx G
bx F
bx E
bx D
bx C
bx B
bx A
x@
bx ?
bx >
bx =
bx <
bx ;
bx :
bx 9
bx 8
bx 7
x6
bx 5
x4
bx 3
b0 2
bx 1
x0
bx /
bx .
x-
bx ,
0+
b10000000000000000000000000000011 *
b10000000000000000000000000000100 )
bx (
0'
0&
1%
b0 $
0#
bx "
x!
$end
#5
1b"
b0 O
b0 j
b0 /"
b0 Q
b0 m
b0 v
b0 P
b0 l
b0 :"
b0 N
b0 i
b0 9"
b0 ?
b0 G"
b0 x"
b0 >
b0 F"
b0 w"
b0 ;
b0 U"
b0 \"
b0 `"
b0 ^"
b0 p"
0!
b0 ?"
b0 A"
b0 @"
b0 B"
b0 C"
b0 e"
b0 g"
b0 f"
b0 v"
b0 u"
b0 z
b0 A
b0 H"
b0 Z"
b10 ^
b10 b
b10 c
0-
0@
b0 1
b0 n"
b0 Y
b0 y
01"
02"
00"
03"
0u
b0 h
b0 g
b0 _
0c"
b0 9
b0 '"
b0 +"
b0 j"
b0 *"
b0 .
b0 s"
b0 3
b0 p
b0 |"
b0 q"
b0 :
b0 T"
b0 ]"
b0 o"
b0 V"
b0 =
b0 E"
b0 W"
b0 Y"
b0 <
b0 D"
b0 X"
b0 "
b0 ,
b0 H
b0 M"
b0 K
b0 a
b0 J"
b0 J
b0 `
b0 K"
b0 C
b0 k
b0 R"
b0 E
b0 n
b0 P"
b0 F
b0 4"
b0 O"
b0 d"
b0 B
b0 <"
b0 S"
b0 D
b0 ="
b0 Q"
b0 I
b0 q
b0 x
b0 L"
b0 L
b0 I"
b0 G
b0 o
b0 w
b0 N"
0V
b0 R
b0 ("
b0 ,"
b0 7"
b0 X
b0 r
b0 )"
b0 5"
b0 h"
b0 T
b0 6"
b0 8"
b0 i"
0U
0W
0S
06
00
04
b0 /
b0 t"
b0 5
b0 ;"
b0 m"
b0 8
b0 k"
b0 z"
b0 7
b0 l"
b0 {"
b10000000000 a"
b100000 y"
b10000000000 -"
0%
1#
#10
0#
#15
b0 ^
b0 b
b0 c
b101 _
b101 L
b101 I"
b10000000000 -"
b10000000000 a"
1%
1#
#20
0#
#25
b100 p"
b1 r"
b10000000000 a"
b10000000000 -"
b1 (
b1000000000000010010011 $
b1000000000000010010011 2
b1000000000000010010011 ["
b1000000000000010010011 _"
1'
1#
#30
0#
#35
b1 ^"
b1000 p"
b0 ;
b0 U"
b0 \"
b0 `"
b100 :
b100 T"
b100 ]"
b100 o"
b1 q"
b10000000000 -"
b10000000000 a"
b1000000000000000000000110010011 $
b1000000000000000000000110010011 2
b1000000000000000000000110010011 ["
b1000000000000000000000110010011 _"
1#
#40
0#
#45
b10 ^"
b1100 p"
b1000 :
b1000 T"
b1000 ]"
b1000 o"
b0 ;
b0 U"
b0 \"
b0 `"
b100 <
b100 D"
b100 X"
b10000000000 a"
b10000000000 -"
b110000000000000001000010011 $
b110000000000000001000010011 2
b110000000000000001000010011 ["
b110000000000000001000010011 _"
1#
#50
0#
#55
b100 1
b100 n"
b100 Y
b100 y
b11 ^"
b10000 p"
b100 G
b100 o
b100 w
b100 N"
b1000 <
b1000 D"
b1000 X"
b0 ;
b0 U"
b0 \"
b0 `"
b1100 :
b1100 T"
b1100 ]"
b1100 o"
b10000000000 -"
b10000000000 a"
b100000000001000001001100011 $
b100000000001000001001100011 2
b100000000001000001001100011 ["
b100000000001000001001100011 _"
1#
#60
0#
#65
b100 ^"
b10100 p"
b1000 1
b1000 n"
b1000 Y
b1000 y
b10000 :
b10000 T"
b10000 ]"
b10000 o"
b0 ;
b0 U"
b0 \"
b0 `"
b1100 <
b1100 D"
b1100 X"
b1000 G
b1000 o
b1000 w
b1000 N"
b10000000000 a"
b10000000000 -"
b100000000000100010011 $
b100000000000100010011 2
b100000000000100010011 ["
b100000000000100010011 _"
1#
#70
0#
#75
b1100 1
b1100 n"
b1100 Y
b1100 y
b101 ^"
b11000 p"
b1100 G
b1100 o
b1100 w
b1100 N"
b10000 <
b10000 D"
b10000 X"
b0 ;
b0 U"
b0 \"
b0 `"
b10100 :
b10100 T"
b10100 ]"
b10100 o"
b10000000000 -"
b10000000000 a"
b100001000001000001001100011 $
b100001000001000001001100011 2
b100001000001000001001100011 ["
b100001000001000001001100011 _"
1#
#80
0#
#85
b110 ^"
b11100 p"
b10000 1
b10000 n"
b10000 Y
b10000 y
b11000 :
b11000 T"
b11000 ]"
b11000 o"
b0 ;
b0 U"
b0 \"
b0 `"
b10100 <
b10100 D"
b10100 X"
b10000 G
b10000 o
b10000 w
b10000 N"
b10000000000 a"
b10000000000 -"
b11111111010000011000000110010011 $
b11111111010000011000000110010011 2
b11111111010000011000000110010011 ["
b11111111010000011000000110010011 _"
1#
#90
0#
#95
b10100 1
b10100 n"
b10100 Y
b10100 y
b111 ^"
b100000 p"
b10100 G
b10100 o
b10100 w
b10100 N"
b11000 <
b11000 D"
b11000 X"
b0 ;
b0 U"
b0 \"
b0 `"
b11100 :
b11100 T"
b11100 ]"
b11100 o"
b10000000000 -"
b10000000000 a"
b10000011010010000100011 $
b10000011010010000100011 2
b10000011010010000100011 ["
b10000011010010000100011 _"
1#
#100
0#
#105
b1000 ^"
b100100 p"
b11000 1
b11000 n"
b11000 Y
b11000 y
b100000 :
b100000 T"
b100000 ]"
b100000 o"
b0 ;
b0 U"
b0 \"
b0 `"
b11100 <
b11100 D"
b11100 X"
b11000 G
b11000 o
b11000 w
b11000 N"
b10000000000 a"
b10000000000 -"
b100011010001000100011 $
b100011010001000100011 2
b100011010001000100011 ["
b100011010001000100011 _"
1#
#110
0#
#115
b11100 1
b11100 n"
b11100 Y
b11100 y
b1001 ^"
b101000 p"
b11100 G
b11100 o
b11100 w
b11100 N"
b100000 <
b100000 D"
b100000 X"
b0 ;
b0 U"
b0 \"
b0 `"
b100100 :
b100100 T"
b100100 ]"
b100100 o"
b10000000000 -"
b10000000000 a"
b11111111111100001000000010010011 $
b11111111111100001000000010010011 2
b11111111111100001000000010010011 ["
b11111111111100001000000010010011 _"
1#
#120
0#
#125
b1010 ^"
b101100 p"
b100000 1
b100000 n"
b100000 Y
b100000 y
b101000 :
b101000 T"
b101000 ]"
b101000 o"
b0 ;
b0 U"
b0 \"
b0 `"
b100100 <
b100100 D"
b100100 X"
b100000 G
b100000 o
b100000 w
b100000 N"
b10000000000 a"
b10000000000 -"
b11111110010111111111001001101111 $
b11111110010111111111001001101111 2
b11111110010111111111001001101111 ["
b11111110010111111111001001101111 _"
1#
#130
0#
#135
b100100 1
b100100 n"
b100100 Y
b100100 y
b1011 ^"
b110000 p"
b100100 G
b100100 o
b100100 w
b100100 N"
b101000 <
b101000 D"
b101000 X"
b0 ;
b0 U"
b0 \"
b0 `"
b101100 :
b101100 T"
b101100 ]"
b101100 o"
b10000000000 -"
b10000000000 a"
b100011010000000100011 $
b100011010000000100011 2
b100011010000000100011 ["
b100011010000000100011 _"
1#
#140
0#
#145
b1100 ^"
b110100 p"
b101000 1
b101000 n"
b101000 Y
b101000 y
b110000 :
b110000 T"
b110000 ]"
b110000 o"
b0 ;
b0 U"
b0 \"
b0 `"
b101100 <
b101100 D"
b101100 X"
b101000 G
b101000 o
b101000 w
b101000 N"
b10000000000 a"
b10000000000 -"
b10000011010000010000011 $
b10000011010000010000011 2
b10000011010000010000011 ["
b10000011010000010000011 _"
1#
#150
0#
#155
b101100 1
b101100 n"
b101100 Y
b101100 y
b1101 ^"
b111000 p"
b101100 G
b101100 o
b101100 w
b101100 N"
b110000 <
b110000 D"
b110000 X"
b0 ;
b0 U"
b0 \"
b0 `"
b110100 :
b110100 T"
b110100 ]"
b110100 o"
b10000000000 -"
b10000000000 a"
b11111111111000001000000010010011 $
b11111111111000001000000010010011 2
b11111111111000001000000010010011 ["
b11111111111000001000000010010011 _"
1#
#160
0#
#165
b1110 ^"
b111100 p"
b110000 1
b110000 n"
b110000 Y
b110000 y
b111000 :
b111000 T"
b111000 ]"
b111000 o"
b0 ;
b0 U"
b0 \"
b0 `"
b110100 <
b110100 D"
b110100 X"
b110000 G
b110000 o
b110000 w
b110000 N"
b10000000000 a"
b10000000000 -"
b11111101010111111111001001101111 $
b11111101010111111111001001101111 2
b11111101010111111111001001101111 ["
b11111101010111111111001001101111 _"
1#
#170
0#
#175
b110100 1
b110100 n"
b110100 Y
b110100 y
b1111 ^"
b1000000 p"
b110100 G
b110100 o
b110100 w
b110100 N"
b111000 <
b111000 D"
b111000 X"
b0 ;
b0 U"
b0 \"
b0 `"
b111100 :
b111100 T"
b111100 ]"
b111100 o"
b10000000000 -"
b10000000000 a"
b11010000100000011 $
b11010000100000011 2
b11010000100000011 ["
b11010000100000011 _"
1#
#180
0#
#185
b10000 ^"
b1000100 p"
b111000 1
b111000 n"
b111000 Y
b111000 y
b1000000 :
b1000000 T"
b1000000 ]"
b1000000 o"
b0 ;
b0 U"
b0 \"
b0 `"
b111100 <
b111100 D"
b111100 X"
b111000 G
b111000 o
b111000 w
b111000 N"
b10000000000 a"
b10000000000 -"
b1000001000000010110011 $
b1000001000000010110011 2
b1000001000000010110011 ["
b1000001000000010110011 _"
1#
#190
0#
#195
b111100 1
b111100 n"
b111100 Y
b111100 y
b10001 ^"
b1001000 p"
b111100 G
b111100 o
b111100 w
b111100 N"
b1000000 <
b1000000 D"
b1000000 X"
b0 ;
b0 U"
b0 \"
b0 `"
b1000100 :
b1000100 T"
b1000100 ]"
b1000100 o"
b10000000000 -"
b10000000000 a"
b100000011010001000000011 $
b100000011010001000000011 2
b100000011010001000000011 ["
b100000011010001000000011 _"
1#
#200
0#
#205
b10010 ^"
b1001100 p"
b1000000 1
b1000000 n"
b1000000 Y
b1000000 y
b1001000 :
b1001000 T"
b1001000 ]"
b1001000 o"
b0 ;
b0 U"
b0 \"
b0 `"
b1000100 <
b1000100 D"
b1000100 X"
b1000000 G
b1000000 o
b1000000 w
b1000000 N"
b10000000000 a"
b10000000000 -"
b110000011000000110010011 $
b110000011000000110010011 2
b110000011000000110010011 ["
b110000011000000110010011 _"
1#
#210
0#
#215
b1000100 1
b1000100 n"
b1000100 Y
b1000100 y
b10011 ^"
b1010000 p"
b1000100 G
b1000100 o
b1000100 w
b1000100 N"
b1001000 <
b1001000 D"
b1001000 X"
b0 ;
b0 U"
b0 \"
b0 `"
b1001100 :
b1001100 T"
b1001100 ]"
b1001100 o"
b10000000000 -"
b10000000000 a"
b100000000001100111 $
b100000000001100111 2
b100000000001100111 ["
b100000000001100111 _"
1#
#220
0#
#225
b10100 ^"
b1010100 p"
b1001000 1
b1001000 n"
b1001000 Y
b1001000 y
b1010000 :
b1010000 T"
b1010000 ]"
b1010000 o"
b0 ;
b0 U"
b0 \"
b0 `"
b1001100 <
b1001100 D"
b1001100 X"
b1001000 G
b1001000 o
b1001000 w
b1001000 N"
b10000000000 a"
b10000000000 -"
b10010011 $
b10010011 2
b10010011 ["
b10010011 _"
1#
#230
0#
#235
b1001100 1
b1001100 n"
b1001100 Y
b1001100 y
b10101 ^"
b1011000 p"
b1001100 G
b1001100 o
b1001100 w
b1001100 N"
b1010000 <
b1010000 D"
b1010000 X"
b0 ;
b0 U"
b0 \"
b0 `"
b1010100 :
b1010100 T"
b1010100 ]"
b1010100 o"
b10000000000 -"
b10000000000 a"
b100000000001100111 $
b100000000001100111 2
b100000000001100111 ["
b100000000001100111 _"
1#
#240
0#
#245
b10110 ^"
b1011100 p"
b1010000 1
b1010000 n"
b1010000 Y
b1010000 y
b1011000 :
b1011000 T"
b1011000 ]"
b1011000 o"
b0 ;
b0 U"
b0 \"
b0 `"
b1010100 <
b1010100 D"
b1010100 X"
b1010000 G
b1010000 o
b1010000 w
b1010000 N"
b10000000000 a"
b10000000000 -"
b100000000000010010011 $
b100000000000010010011 2
b100000000000010010011 ["
b100000000000010010011 _"
1#
#250
0#
#255
b1010100 1
b1010100 n"
b1010100 Y
b1010100 y
b10111 ^"
b1100000 p"
b1010100 G
b1010100 o
b1010100 w
b1010100 N"
b1011000 <
b1011000 D"
b1011000 X"
b0 ;
b0 U"
b0 \"
b0 `"
b1011100 :
b1011100 T"
b1011100 ]"
b1011100 o"
b10000000000 -"
b10000000000 a"
b100000000001100111 $
b100000000001100111 2
b100000000001100111 ["
b100000000001100111 _"
1#
#260
0#
#265
b11000 ^"
b1100100 p"
b1011000 1
b1011000 n"
b1011000 Y
b1011000 y
b1100000 :
b1100000 T"
b1100000 ]"
b1100000 o"
b0 ;
b0 U"
b0 \"
b0 `"
b1011100 <
b1011100 D"
b1011100 X"
b1011000 G
b1011000 o
b1011000 w
b1011000 N"
b10000000000 a"
b10000000000 -"
b11111111111111111111111111111111 $
b11111111111111111111111111111111 2
b11111111111111111111111111111111 ["
b11111111111111111111111111111111 _"
1#
#270
0#
#275
b1011100 1
b1011100 n"
b1011100 Y
b1011100 y
b11001 ^"
b1011100 G
b1011100 o
b1011100 w
b1011100 N"
b1100000 <
b1100000 D"
b1100000 X"
b0 ;
b0 U"
b0 \"
b0 `"
b1100100 :
b1100100 T"
b1100100 ]"
b1100100 o"
b0 p"
b10 r"
b10000000000 -"
b10000000000 a"
1&
0'
1#
#280
0#
#285
b1000000000000010010011 ;
b1000000000000010010011 U"
b1000000000000010010011 \"
b1000000000000010010011 `"
b0 ^"
b100 p"
b1100000 1
b1100000 n"
b1100000 Y
b1100000 y
b0 :
b0 T"
b0 ]"
b0 o"
b10 q"
b1100100 <
b1100100 D"
b1100100 X"
b1100000 G
b1100000 o
b1100000 w
b1100000 N"
b10000000000 a"
b10000000000 -"
1#
#290
0#
#295
b100 |
1&"
b1010000100 M
b1010000100 {
b1010000100 >"
b1 ~
b1100100 1
b1100100 n"
b1100100 Y
b1100100 y
b1 ?"
b10 A"
b10011 e"
b10 g"
b10 v"
b10011 z
b10 A
b10 H"
b10 Z"
b1000000000000000000000110010011 ;
b1000000000000000000000110010011 U"
b1000000000000000000000110010011 \"
b1000000000000000000000110010011 `"
b1 ^"
b1000 p"
b1100100 G
b1100100 o
b1100100 w
b1100100 N"
b1000000000000010010011 =
b1000000000000010010011 E"
b1000000000000010010011 W"
b1000000000000010010011 Y"
b0 <
b0 D"
b0 X"
b100 :
b100 T"
b100 ]"
b100 o"
b10000000000 -"
b10000000000 a"
1#
#300
0#
#305
b10 ]
b10 f
b10 ."
b10 ^
b10 b
b10 c
b110000000000000001000010011 ;
b110000000000000001000010011 U"
b110000000000000001000010011 \"
b110000000000000001000010011 `"
b10 ^"
b1100 p"
b11 ?"
b0 A"
b100000 C"
b0 g"
b0 v"
b10000000000 A
b10000000000 H"
b10000000000 Z"
b10 [
b10 d
b10 t
13"
b1 h
b100 _
b10 1
b10 n"
b10 Y
b10 y
b1000 :
b1000 T"
b1000 ]"
b1000 o"
b1000000000000000000000110010011 =
b1000000000000000000000110010011 E"
b1000000000000000000000110010011 W"
b1000000000000000000000110010011 Y"
b100 <
b100 D"
b100 X"
b1000000000000010010011 "
b1000000000000010010011 ,
b1000000000000010010011 H
b1000000000000010010011 M"
b1 F
b1 4"
b1 O"
b1 d"
b10 B
b10 <"
b10 S"
b10 I
b10 q
b10 x
b10 L"
b1010000100 L
b1010000100 I"
b0 G
b0 o
b0 w
b0 N"
b10000000000 a"
b10000000000 -"
1#
#310
0#
#315
b10000000000 ]
b10000000000 f
b10000000000 ."
b10000000000 [
b10000000000 d
b10000000000 t
b10000000100 1
b10000000100 n"
b10000000100 Y
b10000000100 y
b100 ?"
b11 C"
b1100000 A
b1100000 H"
b1100000 Z"
b100000000001000001001100011 ;
b100000000001000001001100011 U"
b100000000001000001001100011 \"
b100000000001000001001100011 `"
b11 ^"
b10000 p"
b10 X
b10 r
b10 )"
b10 5"
b10 h"
b1 T
b1 6"
b1 8"
b1 i"
1S
b1000000000000000000000110010011 "
b1000000000000000000000110010011 ,
b1000000000000000000000110010011 H
b1000000000000000000000110010011 M"
b100000 J
b100000 `
b100000 K"
b11 F
b11 4"
b11 O"
b11 d"
b0 B
b0 <"
b0 S"
b10000000000 I
b10000000000 q
b10000000000 x
b10000000000 L"
b100 G
b100 o
b100 w
b100 N"
b110000000000000001000010011 =
b110000000000000001000010011 E"
b110000000000000001000010011 W"
b110000000000000001000010011 Y"
b1000 <
b1000 D"
b1000 X"
b1100 :
b1100 T"
b1100 ]"
b1100 o"
b10000000000 -"
b10000000000 a"
1#
#320
0#
